…
brfss_clean = janitor::clean_names(brfss_smart2010) %>%
  rename(state = locationabbr, state_and_county = locationdesc, lower_confidence_limit = confidence_limit_low, 
         higher_confidence_limit = confidence_limit_high) %>%
  filter(topic == "Overall Health") %>%
  mutate(
    response = factor(response, c("Excellent", "Very good", "Good", "Fair", "Poor"))
  )
  
  
 
brfss_clean
```

    ## # A tibble: 10,625 x 23
    ##     year state state_and_county class topic question response sample_size
    ##    <int> <chr> <chr>            <chr> <chr> <chr>    <fct>          <int>
    ##  1  2010 AL    AL - Jefferson ~ Heal~ Over~ How is ~ Excelle~          94
    ##  2  2010 AL    AL - Jefferson ~ Heal~ Over~ How is ~ Very go~         148
    ##  3  2010 AL    AL - Jefferson ~ Heal~ Over~ How is ~ Good             208
    ##  4  2010 AL    AL - Jefferson ~ Heal~ Over~ How is ~ Fair             107
    ##  5  2010 AL    AL - Jefferson ~ Heal~ Over~ How is ~ Poor              45
    ##  6  2010 AL    AL - Mobile Cou~ Heal~ Over~ How is ~ Excelle~          91
    ##  7  2010 AL    AL - Mobile Cou~ Heal~ Over~ How is ~ Very go~         177
    ##  8  2010 AL    AL - Mobile Cou~ Heal~ Over~ How is ~ Good             224
    ##  9  2010 AL    AL - Mobile Cou~ Heal~ Over~ How is ~ Fair             120
    ## 10  2010 AL    AL - Mobile Cou~ Heal~ Over~ How is ~ Poor              66
    ## # ... with 10,615 more rows, and 15 more variables: data_value <dbl>,
    ## #   lower_confidence_limit <dbl>, higher_confidence_limit <dbl>,
    ## #   display_order <int>, data_value_unit <chr>, data_value_type <chr>,
    ## #   data_value_footnote_symbol <chr>, data_value_footnote <chr>,
    ## #   data_source <chr>, class_id <chr>, topic_id <chr>, location_id <chr>,
    ## #   question_id <chr>, respid <chr>, geo_location <chr>
…
From the table we can see that the mean and standard deviation of the proportion of "Excellent" responses across locations in NY state have few differences between year 2002, 2006, and 2010.

\*For each year and state, compute the average proportion in each response category (taking the average across locations in a state). Make a five-panel plot that shows, for each response category separately, the distribution of these state-level averages over time.

``` r
brfss_average_proportion = brfss_clean %>%
  group_by(Year = year, State = state, Response = response) %>%
  summarize(Proportion = mean(data_value)/100)

brfss_average_proportion
```

    ## # A tibble: 2,215 x 4
    ## # Groups:   Year, State [?]
    ##     Year State Response  Proportion
    ##    <int> <chr> <fct>          <dbl>
    ##  1  2002 AK    Excellent      0.279
    ##  2  2002 AK    Very good      0.337
    ##  3  2002 AK    Good           0.238
    ##  4  2002 AK    Fair           0.086
    ##  5  2002 AK    Poor           0.059
    ##  6  2002 AL    Excellent      0.185
    ##  7  2002 AL    Very good      0.309
    ##  8  2002 AL    Good           0.327
    ##  9  2002 AL    Fair           0.121
    ## 10  2002 AL    Poor           0.059
    ## # ... with 2,205 more rows
…
First, let's import and clean the instacart data.

``` r
data(instacart)

instacart_clean = janitor::clean_names(instacart)
```

Then let's explore this dataset.

``` r
instacart_clean
```

    ## # A tibble: 1,384,617 x 15
    ##    order_id product_id add_to_cart_ord~ reordered user_id eval_set
    ##       <int>      <int>            <int>     <int>   <int> <chr>   
    ##  1        1      49302                1         1  112108 train   
    ##  2        1      11109                2         1  112108 train   
    ##  3        1      10246                3         0  112108 train   
    ##  4        1      49683                4         0  112108 train   
    ##  5        1      43633                5         1  112108 train   
    ##  6        1      13176                6         0  112108 train   
    ##  7        1      47209                7         0  112108 train   
    ##  8        1      22035                8         1  112108 train   
    ##  9       36      39612                1         0   79431 train   
    ## 10       36      19660                2         1   79431 train   
    ## # ... with 1,384,607 more rows, and 9 more variables: order_number <int>,
    ## #   order_dow <int>, order_hour_of_day <int>,
    ## #   days_since_prior_order <int>, product_name <chr>, aisle_id <int>,
    ## #   department_id <int>, aisle <chr>, department <chr>
…
